{
  "_meta": {
    "success": true,
    "code": 200,
    "message": "OK. Everything worked as expected.",
    "totalCount": 1891,
    "pageCount": 95,
    "currentPage": 1,
    "perPage": 20,
    "rateLimit": {
      "limit": 30,
      "remaining": 29,
      "reset": 2
    }
  },
  "result": [
    {
      "id": "7673",
      "first_name": "Albert",
      "last_name": "Einstein",
      "gender": "male",
      "dob": "1936-03-18",
      "email": "walsh.rashad@example.net",
      "phone": "(317) 356-1990",
      "website": "http://turner.com/dolorem-alias-facilis-fugiat-et-excepturi-at-quia-iure.html",
      "address": "887 Sally Ports\nNew Leannamouth, AK 38069-3560",
      "status": "active",
      "_links": {
        "self": {
          "href": "https://gorest.co.in/public-api/users/7673"
        },
        "edit": {
          "href": "https://gorest.co.in/public-api/users/7673"
        },
        "avatar": {
          "href": "https://lorempixel.com/250/250/people/?29074"
        }
      }
    },
    {
      "id": "7676",
      "first_name": "Megane",
      "last_name": "Ziemann",
      "gender": "female",
      "dob": "1925-06-09",
      "email": "denis73@example.org",
      "phone": "638-548-7764 x96701",
      "website": "https://monahan.com/saepe-non-assumenda-non-odio-qui-vero.html",
      "address": "63160 Nicolas Mission Apt. 976\nWest Lauryborough, CT 92579-6659",
      "status": "inactive",
      "_links": {
        "self": {
          "href": "https://gorest.co.in/public-api/users/7676"
        },
        "edit": {
          "href": "https://gorest.co.in/public-api/users/7676"
        },
        "avatar": {
          "href": "https://lorempixel.com/250/250/people/?93602"
        }
      }
    },
    {
      "id": "7677",
      "first_name": "Judah",
      "last_name": "Vandervort",
      "gender": "male",
      "dob": "1927-12-29",
      "email": "malika.abbott@example.com",
      "phone": "(754) 799-5637",
      "website": "http://cremin.info/provident-enim-quis-ut",
      "address": "70272 Koepp Path\nLake Shannaburgh, AL 40293",
      "status": "inactive",
      "_links": {
        "self": {
          "href": "https://gorest.co.in/public-api/users/7677"
        },
        "edit": {
          "href": "https://gorest.co.in/public-api/users/7677"
        },
        "avatar": {
          "href": "https://lorempixel.com/250/250/people/?96913"
        }
      }
    },
    {
      "id": "7679",
      "first_name": "Sallie",
      "last_name": "Gleason",
      "gender": "female",
      "dob": "1976-10-15",
      "email": "thalia.grimes@example.net",
      "phone": "468.986.0201",
      "website": "http://www.murazik.com/rerum-sit-maiores-occaecati-dolorum-quis",
      "address": "78860 Arden Parks Suite 377\nLake Marty, WV 43360",
      "status": "active",
      "_links": {
        "self": {
          "href": "https://gorest.co.in/public-api/users/7679"
        },
        "edit": {
          "href": "https://gorest.co.in/public-api/users/7679"
        },
        "avatar": {
          "href": "https://lorempixel.com/250/250/people/?70068"
        }
      }
    },
    {
      "id": "7680",
      "first_name": "Armani",
      "last_name": "Erdman",
      "gender": "male",
      "dob": "2019-10-05",
      "email": "qbode@example.org",
      "phone": "1-972-414-4307",
      "website": "http://bashirian.com/esse-earum-neque-odio-sed-ratione-fuga",
      "address": "2475 Jaren Knoll Suite 388\nJillianstad, PA 16311",
      "status": "active",
      "_links": {
        "self": {
          "href": "https://gorest.co.in/public-api/users/7680"
        },
        "edit": {
          "href": "https://gorest.co.in/public-api/users/7680"
        },
        "avatar": {
          "href": "https://lorempixel.com/250/250/people/?84248"
        }
      }
    },
    {
      "id": "7681",
      "first_name": "Karlee",
      "last_name": "Blick",
      "gender": "female",
      "dob": "1996-04-26",
      "email": "arjun02@example.net",
      "phone": "951-817-5127",
      "website": "https://bechtelar.org/dolor-delectus-laudantium-et-aut.html",
      "address": "434 VonRueden Turnpike\nBruenfurt, ME 81776-1613",
      "status": "inactive",
      "_links": {
        "self": {
          "href": "https://gorest.co.in/public-api/users/7681"
        },
        "edit": {
          "href": "https://gorest.co.in/public-api/users/7681"
        },
        "avatar": {
          "href": "https://lorempixel.com/250/250/people/?33778"
        }
      }
    },
    {
      "id": "7683",
      "first_name": "Mary",
      "last_name": "Stark",
      "gender": "female",
      "dob": "1977-10-22",
      "email": "gleason.jayson@example.net",
      "phone": "1-394-522-2917 x1349",
      "website": "http://klein.com/perferendis-ut-aut-nihil-nam-et.html",
      "address": "947 Maggio Squares Suite 904\nRamonhaven, TN 07435",
      "status": "inactive",
      "_links": {
        "self": {
          "href": "https://gorest.co.in/public-api/users/7683"
        },
        "edit": {
          "href": "https://gorest.co.in/public-api/users/7683"
        },
        "avatar": {
          "href": "https://lorempixel.com/250/250/people/?22777"
        }
      }
    },
    {
      "id": "7684",
      "first_name": "Gunner",
      "last_name": "Block",
      "gender": "male",
      "dob": "1958-10-06",
      "email": "alexanne76@example.com",
      "phone": "(231) 385-7207",
      "website": "https://www.christiansen.com/quis-ea-suscipit-voluptas-qui-dolor-nemo-sed-autem",
      "address": "4338 O'Connell Garden Apt. 034\nSouth Aletha, OR 18317",
      "status": "inactive",
      "_links": {
        "self": {
          "href": "https://gorest.co.in/public-api/users/7684"
        },
        "edit": {
          "href": "https://gorest.co.in/public-api/users/7684"
        },
        "avatar": {
          "href": "https://lorempixel.com/250/250/people/?57377"
        }
      }
    },
    {
      "id": "7685",
      "first_name": "Bartholome",
      "last_name": "Kertzmann",
      "gender": "male",
      "dob": "1949-01-07",
      "email": "mayer.sean@example.com",
      "phone": "+1-591-689-4970",
      "website": "http://daugherty.net/soluta-id-at-sunt-qui-quam-aliquam",
      "address": "131 Abe Spurs\nPort Leo, IA 39962",
      "status": "active",
      "_links": {
        "self": {
          "href": "https://gorest.co.in/public-api/users/7685"
        },
        "edit": {
          "href": "https://gorest.co.in/public-api/users/7685"
        },
        "avatar": {
          "href": "https://lorempixel.com/250/250/people/?44663"
        }
      }
    },
    {
      "id": "7686",
      "first_name": "Colton",
      "last_name": "Ullrich",
      "gender": "male",
      "dob": "1971-08-29",
      "email": "fstanton@example.net",
      "phone": "845-220-1164 x3582",
      "website": "http://pfeffer.net/sint-quisquam-et-asperiores-inventore-iste-voluptatem-et",
      "address": "53299 Reichert Prairie\nPort Llewellynburgh, OH 94393-6785",
      "status": "active",
      "_links": {
        "self": {
          "href": "https://gorest.co.in/public-api/users/7686"
        },
        "edit": {
          "href": "https://gorest.co.in/public-api/users/7686"
        },
        "avatar": {
          "href": "https://lorempixel.com/250/250/people/?83432"
        }
      }
    },
    {
      "id": "11837",
      "first_name": "Tyrell",
      "last_name": "Kovacek",
      "gender": "male",
      "dob": "1999-11-16",
      "email": "gutmann.jerome@example.org",
      "phone": "+1-858-607-2712",
      "website": "http://www.mclaughlin.biz/ex-et-illum-perspiciatis-iste-ut-et",
      "address": "1676 Witting Drive Suite 930\nLangtown, RI 04330",
      "status": "inactive",
      "_links": {
        "self": {
          "href": "https://gorest.co.in/public-api/users/11837"
        },
        "edit": {
          "href": "https://gorest.co.in/public-api/users/11837"
        },
        "avatar": {
          "href": "https://lorempixel.com/250/250/people/?11079"
        }
      }
    },
    {
      "id": "11841",
      "first_name": "Emerson",
      "last_name": "Anderson",
      "gender": "male",
      "dob": "1936-06-25",
      "email": "brekke.jace@example.com",
      "phone": "1-702-398-8268 x48595",
      "website": "http://smith.net/enim-quisquam-temporibus-minus-eos.html",
      "address": "4661 Trever Garden\nEast Candaceberg, AK 60013-7342",
      "status": "inactive",
      "_links": {
        "self": {
          "href": "https://gorest.co.in/public-api/users/11841"
        },
        "edit": {
          "href": "https://gorest.co.in/public-api/users/11841"
        },
        "avatar": {
          "href": "https://lorempixel.com/250/250/people/?72451"
        }
      }
    },
    {
      "id": "11842",
      "first_name": "Everardo",
      "last_name": "Lowe",
      "gender": "male",
      "dob": "1947-12-25",
      "email": "nannie.wuckert@example.com",
      "phone": "+1 (230) 818-8749",
      "website": "http://hackett.com/quo-earum-qui-sit-similique",
      "address": "35258 Ellie Canyon\nDietrichmouth, MT 60516-8530",
      "status": "active",
      "_links": {
        "self": {
          "href": "https://gorest.co.in/public-api/users/11842"
        },
        "edit": {
          "href": "https://gorest.co.in/public-api/users/11842"
        },
        "avatar": {
          "href": "https://lorempixel.com/250/250/people/?12682"
        }
      }
    },
    {
      "id": "11843",
      "first_name": "America",
      "last_name": "Krajcik",
      "gender": "female",
      "dob": "2019-08-04",
      "email": "coberbrunner@example.org",
      "phone": "+1.395.766.1001",
      "website": "http://www.lebsack.net/et-esse-voluptas-modi-minima-ex-natus-fuga-voluptatibus",
      "address": "6780 Danny Corners Suite 561\nReynaport, IA 90977",
      "status": "inactive",
      "_links": {
        "self": {
          "href": "https://gorest.co.in/public-api/users/11843"
        },
        "edit": {
          "href": "https://gorest.co.in/public-api/users/11843"
        },
        "avatar": {
          "href": "https://lorempixel.com/250/250/people/?85914"
        }
      }
    },
    {
      "id": "11844",
      "first_name": "Quentin",
      "last_name": "Schneider",
      "gender": "male",
      "dob": "1966-06-17",
      "email": "hodkiewicz.britney@example.net",
      "phone": "461.485.2368 x4221",
      "website": "http://bruen.org/rerum-debitis-voluptas-ut-perferendis-in-enim-dignissimos",
      "address": "1438 Ephraim Vista Suite 071\nMalcolmmouth, DC 74401",
      "status": "inactive",
      "_links": {
        "self": {
          "href": "https://gorest.co.in/public-api/users/11844"
        },
        "edit": {
          "href": "https://gorest.co.in/public-api/users/11844"
        },
        "avatar": {
          "href": "https://lorempixel.com/250/250/people/?32008"
        }
      }
    },
    {
      "id": "11845",
      "first_name": "Judy",
      "last_name": "Ullrich",
      "gender": "female",
      "dob": "1960-12-24",
      "email": "dickens.porter@example.net",
      "phone": "697-822-6750 x177",
      "website": "http://rice.biz/dolor-sint-recusandae-aspernatur-temporibus-labore-porro-eveniet",
      "address": "9546 Nico Throughway\nThieltown, NJ 55719-0280",
      "status": "active",
      "_links": {
        "self": {
          "href": "https://gorest.co.in/public-api/users/11845"
        },
        "edit": {
          "href": "https://gorest.co.in/public-api/users/11845"
        },
        "avatar": {
          "href": "https://lorempixel.com/250/250/people/?67641"
        }
      }
    },
    {
      "id": "11846",
      "first_name": "Alivia",
      "last_name": "Zulauf",
      "gender": "female",
      "dob": "1953-05-14",
      "email": "ellie20@example.com",
      "phone": "490.844.1858 x8828",
      "website": "https://www.wuckert.org/non-et-blanditiis-dolore-voluptatem-corporis-maxime-et",
      "address": "178 Mozelle Mountains Apt. 148\nStantontown, NV 64516",
      "status": "active",
      "_links": {
        "self": {
          "href": "https://gorest.co.in/public-api/users/11846"
        },
        "edit": {
          "href": "https://gorest.co.in/public-api/users/11846"
        },
        "avatar": {
          "href": "https://lorempixel.com/250/250/people/?76936"
        }
      }
    },
    {
      "id": "11847",
      "first_name": "Trisha",
      "last_name": "Kirlin",
      "gender": "female",
      "dob": "2001-05-22",
      "email": "laverna.kihn@example.org",
      "phone": "435-566-9106",
      "website": "http://hermann.info/",
      "address": "67251 Jovanny Dale\nPort Mohammedburgh, NH 68589-8341",
      "status": "inactive",
      "_links": {
        "self": {
          "href": "https://gorest.co.in/public-api/users/11847"
        },
        "edit": {
          "href": "https://gorest.co.in/public-api/users/11847"
        },
        "avatar": {
          "href": "https://lorempixel.com/250/250/people/?97713"
        }
      }
    },
    {
      "id": "11848",
      "first_name": "Rachelle",
      "last_name": "Sipes",
      "gender": "female",
      "dob": "1966-03-06",
      "email": "kristy92@example.com",
      "phone": "998-798-8477",
      "website": "http://yost.info/et-error-sed-magni-soluta-at-sunt-praesentium-aperiam",
      "address": "320 Mozell Course Suite 324\nNorth Pascale, WI 04067-1669",
      "status": "inactive",
      "_links": {
        "self": {
          "href": "https://gorest.co.in/public-api/users/11848"
        },
        "edit": {
          "href": "https://gorest.co.in/public-api/users/11848"
        },
        "avatar": {
          "href": "https://lorempixel.com/250/250/people/?41848"
        }
      }
    },
    {
      "id": "11849",
      "first_name": "Annabelle",
      "last_name": "Orn",
      "gender": "female",
      "dob": "1961-12-24",
      "email": "sharon.lemke@example.com",
      "phone": "1-349-274-4319 x58187",
      "website": "http://gleichner.com/nam-sit-consequatur-ratione-qui-distinctio-atque-aut",
      "address": "92543 Octavia Run\nWest Junior, IA 27356-9302",
      "status": "active",
      "_links": {
        "self": {
          "href": "https://gorest.co.in/public-api/users/11849"
        },
        "edit": {
          "href": "https://gorest.co.in/public-api/users/11849"
        },
        "avatar": {
          "href": "https://lorempixel.com/250/250/people/?34086"
        }
      }
    }
  ]
}